Introduction to dplyr
…
How many columns?

How many data types?

Are there any missing values?

2️⃣Keep or drop columns: select()

Sometimes, you only need to work with a few specific columns instead of the entire data. The select() function makes it easy to do just that. It allows you to focus on the columns you need and ignore the rest, making your code cleaner.

💻Select one column by name:

select(penguins, species)

# A tibble: 344 × 1
   species
   <fct>  
 1 Adelie 
 2 Adelie 
 3 Adelie 
 4 Adelie 
 5 Adelie 
 6 Adelie 
 7 Adelie 
 8 Adelie 
 9 Adelie 
10 Adelie 
# ℹ 334 more rows

💻Select two columns by name:

select(penguins, species, island)

# A tibble: 344 × 2
   species island   
   <fct>   <fct>    
 1 Adelie  Torgersen
 2 Adelie  Torgersen
 3 Adelie  Torgersen
 4 Adelie  Torgersen
 5 Adelie  Torgersen
 6 Adelie  Torgersen
 7 Adelie  Torgersen
 8 Adelie  Torgersen
 9 Adelie  Torgersen
10 Adelie  Torgersen
# ℹ 334 more rows

select(penguins, c(species, island))

# A tibble: 344 × 2
   species island   
   <fct>   <fct>    
 1 Adelie  Torgersen
 2 Adelie  Torgersen
 3 Adelie  Torgersen
 4 Adelie  Torgersen
 5 Adelie  Torgersen
 6 Adelie  Torgersen
 7 Adelie  Torgersen
 8 Adelie  Torgersen
 9 Adelie  Torgersen
10 Adelie  Torgersen
# ℹ 334 more rows

💻Select all columns except certain ones:

select(penguins, -species, -island)

# A tibble: 344 × 6
   bill_length_mm bill_depth_mm flipper_length_mm body_mass_g sex     year
            <dbl>         <dbl>             <int>       <int> <fct>  <int>
 1           39.1          18.7               181        3750 male    2007
 2           39.5          17.4               186        3800 female  2007
 3           40.3          18                 195        3250 female  2007
 4           NA            NA                  NA          NA <NA>    2007
 5           36.7          19.3               193        3450 female  2007
 6           39.3          20.6               190        3650 male    2007
 7           38.9          17.8               181        3625 female  2007
 8           39.2          19.6               195        4675 male    2007
 9           34.1          18.1               193        3475 <NA>    2007
10           42            20.2               190        4250 <NA>    2007
# ℹ 334 more rows

💻Select columns that start with “bill”:

select(penguins, starts_with("bill"))

# A tibble: 344 × 2
   bill_length_mm bill_depth_mm
            <dbl>         <dbl>
 1           39.1          18.7
 2           39.5          17.4
 3           40.3          18  
 4           NA            NA  
 5           36.7          19.3
 6           39.3          20.6
 7           38.9          17.8
 8           39.2          19.6
 9           34.1          18.1
10           42            20.2
# ℹ 334 more rows

Similar functions like ends_with() and contains() are also available to select columns based on the ending or presence of specific characters.

💻Select numeric variables:

select(penguins, where(is.numeric))

# A tibble: 344 × 5
   bill_length_mm bill_depth_mm flipper_length_mm body_mass_g  year
            <dbl>         <dbl>             <int>       <int> <int>
 1           39.1          18.7               181        3750  2007
 2           39.5          17.4               186        3800  2007
 3           40.3          18                 195        3250  2007
 4           NA            NA                  NA          NA  2007
 5           36.7          19.3               193        3450  2007
 6           39.3          20.6               190        3650  2007
 7           38.9          17.8               181        3625  2007
 8           39.2          19.6               195        4675  2007
 9           34.1          18.1               193        3475  2007
10           42            20.2               190        4250  2007
# ℹ 334 more rows

3️⃣Keep rows that match a condition: filter()

Filtering data is a common task in data analysis. Use the filter() function to focus on specific observations.

💻Show only the penguins of the Gentoo species:

filter(penguins, species == "Gentoo")

# A tibble: 124 × 8
   species island bill_length_mm bill_depth_mm flipper_length_mm body_mass_g
   <fct>   <fct>           <dbl>         <dbl>             <int>       <int>
 1 Gentoo  Biscoe           46.1          13.2               211        4500
 2 Gentoo  Biscoe           50            16.3               230        5700
 3 Gentoo  Biscoe           48.7          14.1               210        4450
 4 Gentoo  Biscoe           50            15.2               218        5700
 5 Gentoo  Biscoe           47.6          14.5               215        5400
 6 Gentoo  Biscoe           46.5          13.5               210        4550
 7 Gentoo  Biscoe           45.4          14.6               211        4800
 8 Gentoo  Biscoe           46.7          15.3               219        5200
 9 Gentoo  Biscoe           43.3          13.4               209        4400
10 Gentoo  Biscoe           46.8          15.4               215        5150
# ℹ 114 more rows
# ℹ 2 more variables: sex <fct>, year <int>

💻Find all Adelie penguins that are also on Torgersen Island:

filter(penguins, species == "Adelie", island == "Torgersen")

# A tibble: 52 × 8
   species island    bill_length_mm bill_depth_mm flipper_length_mm body_mass_g
   <fct>   <fct>              <dbl>         <dbl>             <int>       <int>
 1 Adelie  Torgersen           39.1          18.7               181        3750
 2 Adelie  Torgersen           39.5          17.4               186        3800
 3 Adelie  Torgersen           40.3          18                 195        3250
 4 Adelie  Torgersen           NA            NA                  NA          NA
 5 Adelie  Torgersen           36.7          19.3               193        3450
 6 Adelie  Torgersen           39.3          20.6               190        3650
 7 Adelie  Torgersen           38.9          17.8               181        3625
 8 Adelie  Torgersen           39.2          19.6               195        4675
 9 Adelie  Torgersen           34.1          18.1               193        3475
10 Adelie  Torgersen           42            20.2               190        4250
# ℹ 42 more rows
# ℹ 2 more variables: sex <fct>, year <int>

The comma acts as an AND operator, meaning both conditions must be true for a row to be included.

💻Find all penguins that either Adelie or Gentoo:

filter(penguins, species == "Adelie" | species == "Gentoo")

# A tibble: 276 × 8
   species island    bill_length_mm bill_depth_mm flipper_length_mm body_mass_g
   <fct>   <fct>              <dbl>         <dbl>             <int>       <int>
 1 Adelie  Torgersen           39.1          18.7               181        3750
 2 Adelie  Torgersen           39.5          17.4               186        3800
 3 Adelie  Torgersen           40.3          18                 195        3250
 4 Adelie  Torgersen           NA            NA                  NA          NA
 5 Adelie  Torgersen           36.7          19.3               193        3450
 6 Adelie  Torgersen           39.3          20.6               190        3650
 7 Adelie  Torgersen           38.9          17.8               181        3625
 8 Adelie  Torgersen           39.2          19.6               195        4675
 9 Adelie  Torgersen           34.1          18.1               193        3475
10 Adelie  Torgersen           42            20.2               190        4250
# ℹ 266 more rows
# ℹ 2 more variables: sex <fct>, year <int>

filter(penguins, species != "Chinstrap")

# A tibble: 276 × 8
   species island    bill_length_mm bill_depth_mm flipper_length_mm body_mass_g
   <fct>   <fct>              <dbl>         <dbl>             <int>       <int>
 1 Adelie  Torgersen           39.1          18.7               181        3750
 2 Adelie  Torgersen           39.5          17.4               186        3800
 3 Adelie  Torgersen           40.3          18                 195        3250
 4 Adelie  Torgersen           NA            NA                  NA          NA
 5 Adelie  Torgersen           36.7          19.3               193        3450
 6 Adelie  Torgersen           39.3          20.6               190        3650
 7 Adelie  Torgersen           38.9          17.8               181        3625
 8 Adelie  Torgersen           39.2          19.6               195        4675
 9 Adelie  Torgersen           34.1          18.1               193        3475
10 Adelie  Torgersen           42            20.2               190        4250
# ℹ 266 more rows
# ℹ 2 more variables: sex <fct>, year <int>

The vertical bar acts as an OR operator, meaning a row is returned if any of the conditions are true.

📝Exercise 1

Select the sex and year columns from the data.

Filter the data to show only the rows where flipper_length_mm is greater than 200.

Filter the data to find all penguins that are either on Biscoe Island or Torgersen Island.

select(penguins, sex, year)

# A tibble: 344 × 2
   sex     year
   <fct>  <int>
 1 male    2007
 2 female  2007
 3 female  2007
 4 <NA>    2007
 5 female  2007
 6 male    2007
 7 female  2007
 8 male    2007
 9 <NA>    2007
10 <NA>    2007
# ℹ 334 more rows

filter(penguins, flipper_length_mm > 200)

# A tibble: 148 × 8
   species island    bill_length_mm bill_depth_mm flipper_length_mm body_mass_g
   <fct>   <fct>              <dbl>         <dbl>             <int>       <int>
 1 Adelie  Dream               35.7          18                 202        3550
 2 Adelie  Dream               41.1          18.1               205        4300
 3 Adelie  Dream               40.8          18.9               208        4300
 4 Adelie  Biscoe              41            20                 203        4725
 5 Adelie  Torgersen           41.4          18.5               202        3875
 6 Adelie  Torgersen           44.1          18                 210        4000
 7 Adelie  Dream               41.5          18.5               201        4000
 8 Gentoo  Biscoe              46.1          13.2               211        4500
 9 Gentoo  Biscoe              50            16.3               230        5700
10 Gentoo  Biscoe              48.7          14.1               210        4450
# ℹ 138 more rows
# ℹ 2 more variables: sex <fct>, year <int>

filter(penguins, island == "Biscoe" | island == "Torgersen")

# A tibble: 220 × 8
   species island    bill_length_mm bill_depth_mm flipper_length_mm body_mass_g
   <fct>   <fct>              <dbl>         <dbl>             <int>       <int>
 1 Adelie  Torgersen           39.1          18.7               181        3750
 2 Adelie  Torgersen           39.5          17.4               186        3800
 3 Adelie  Torgersen           40.3          18                 195        3250
 4 Adelie  Torgersen           NA            NA                  NA          NA
 5 Adelie  Torgersen           36.7          19.3               193        3450
 6 Adelie  Torgersen           39.3          20.6               190        3650
 7 Adelie  Torgersen           38.9          17.8               181        3625
 8 Adelie  Torgersen           39.2          19.6               195        4675
 9 Adelie  Torgersen           34.1          18.1               193        3475
10 Adelie  Torgersen           42            20.2               190        4250
# ℹ 210 more rows
# ℹ 2 more variables: sex <fct>, year <int>

4️⃣Pipes

💻Filter the data to only include Adelie penguins, and then keep only the columns that start with “bill”:

select(filter(penguins, species == "Adelie"), starts_with("bill"))

# A tibble: 152 × 2
   bill_length_mm bill_depth_mm
            <dbl>         <dbl>
 1           39.1          18.7
 2           39.5          17.4
 3           40.3          18  
 4           NA            NA  
 5           36.7          19.3
 6           39.3          20.6
 7           38.9          17.8
 8           39.2          19.6
 9           34.1          18.1
10           42            20.2
# ℹ 142 more rows

This works, but it can get difficult to read, especially as your code grows more complex. The nested functions force you to read the code inside-out, making it less intuitive

💻Use the pipe to do the same thing in a more streamlined way:

penguins |> 
  filter(species == "Adelie") |> 
  select(starts_with("bill"))

# A tibble: 152 × 2
   bill_length_mm bill_depth_mm
            <dbl>         <dbl>
 1           39.1          18.7
 2           39.5          17.4
 3           40.3          18  
 4           NA            NA  
 5           36.7          19.3
 6           39.3          20.6
 7           38.9          17.8
 8           39.2          19.6
 9           34.1          18.1
10           42            20.2
# ℹ 142 more rows
…
Keyboard shortcuts for the pipe:

Windows: Ctrl + Shift + M

Mac: Cmd + Shift + M

📝Exercise 2

Using the pipe, filter the data to include only female penguins with bill_length_mm less than or equal to 40, and then select the species and bill_length_mm columns.

penguins |> 
  filter(sex == "female", bill_length_mm <= 40) |> 
  select(species, bill_length_mm)

# A tibble: 66 × 2
   species bill_length_mm
   <fct>            <dbl>
 1 Adelie            39.5
 2 Adelie            36.7
 3 Adelie            38.9
 4 Adelie            36.6
 5 Adelie            38.7
 6 Adelie            34.4
 7 Adelie            37.8
 8 Adelie            35.9
 9 Adelie            35.3
10 Adelie            37.9
# ℹ 56 more rows

5️⃣Create and modify columns: mutate()

In data analysis, it’s common to derive new variables from existing ones. The mutate() function is essential for these tasks.

💻Create a new column called body_mass_kg (i.e., the body_mass_g column converted from grams to kilograms):

penguins |> 
  mutate(body_mass_kg = body_mass_g / 1000)

# A tibble: 344 × 9
   species island    bill_length_mm bill_depth_mm flipper_length_mm body_mass_g
   <fct>   <fct>              <dbl>         <dbl>             <int>       <int>
 1 Adelie  Torgersen           39.1          18.7               181        3750
 2 Adelie  Torgersen           39.5          17.4               186        3800
 3 Adelie  Torgersen           40.3          18                 195        3250
 4 Adelie  Torgersen           NA            NA                  NA          NA
 5 Adelie  Torgersen           36.7          19.3               193        3450
 6 Adelie  Torgersen           39.3          20.6               190        3650
 7 Adelie  Torgersen           38.9          17.8               181        3625
 8 Adelie  Torgersen           39.2          19.6               195        4675
 9 Adelie  Torgersen           34.1          18.1               193        3475
10 Adelie  Torgersen           42            20.2               190        4250
# ℹ 334 more rows
# ℹ 3 more variables: sex <fct>, year <int>, body_mass_kg <dbl>

By separating the new columns with a comma, we can create multiple new variables in one function call.

💻Use if_else() to create a column called large_penguin, which indicates whether the penguin’s body mass is greater than 4,000 grams:

penguins |> 
  mutate(large_penguin = if_else(body_mass_g > 4000, TRUE, FALSE))

# A tibble: 344 × 9
   species island    bill_length_mm bill_depth_mm flipper_length_mm body_mass_g
   <fct>   <fct>              <dbl>         <dbl>             <int>       <int>
 1 Adelie  Torgersen           39.1          18.7               181        3750
 2 Adelie  Torgersen           39.5          17.4               186        3800
 3 Adelie  Torgersen           40.3          18                 195        3250
 4 Adelie  Torgersen           NA            NA                  NA          NA
 5 Adelie  Torgersen           36.7          19.3               193        3450
 6 Adelie  Torgersen           39.3          20.6               190        3650
 7 Adelie  Torgersen           38.9          17.8               181        3625
 8 Adelie  Torgersen           39.2          19.6               195        4675
 9 Adelie  Torgersen           34.1          18.1               193        3475
10 Adelie  Torgersen           42            20.2               190        4250
# ℹ 334 more rows
# ℹ 3 more variables: sex <fct>, year <int>, large_penguin <lgl>

💻Use case_when() to categorize the penguins based on their body mass:

penguins |> 
  mutate(size_category = case_when(
    body_mass_g < 3000 ~ "small",
    body_mass_g < 4000 ~ "medium",
    body_mass_g >= 4000 ~ "large",
    .default = "unknown"
  ))

# A tibble: 344 × 9
   species island    bill_length_mm bill_depth_mm flipper_length_mm body_mass_g
   <fct>   <fct>              <dbl>         <dbl>             <int>       <int>
 1 Adelie  Torgersen           39.1          18.7               181        3750
 2 Adelie  Torgersen           39.5          17.4               186        3800
 3 Adelie  Torgersen           40.3          18                 195        3250
 4 Adelie  Torgersen           NA            NA                  NA          NA
 5 Adelie  Torgersen           36.7          19.3               193        3450
 6 Adelie  Torgersen           39.3          20.6               190        3650
 7 Adelie  Torgersen           38.9          17.8               181        3625
 8 Adelie  Torgersen           39.2          19.6               195        4675
 9 Adelie  Torgersen           34.1          18.1               193        3475
10 Adelie  Torgersen           42            20.2               190        4250
# ℹ 334 more rows
# ℹ 3 more variables: sex <fct>, year <int>, size_category <chr>

if_else() is best for binary conditions where you need to choose between two outcomes. In contrast, case_when() is ideal for handling multiple conditions, allowing you to return different values based on various criteria.

💻Use across() to efficiently round values in multiple columns simultaneously:

penguins |> 
  mutate(across(.cols = c(bill_length_mm, bill_depth_mm), .fns = round))

# A tibble: 344 × 8
   species island    bill_length_mm bill_depth_mm flipper_length_mm body_mass_g
   <fct>   <fct>              <dbl>         <dbl>             <int>       <int>
 1 Adelie  Torgersen             39            19               181        3750
 2 Adelie  Torgersen             40            17               186        3800
 3 Adelie  Torgersen             40            18               195        3250
 4 Adelie  Torgersen             NA            NA                NA          NA
 5 Adelie  Torgersen             37            19               193        3450
 6 Adelie  Torgersen             39            21               190        3650
 7 Adelie  Torgersen             39            18               181        3625
 8 Adelie  Torgersen             39            20               195        4675
 9 Adelie  Torgersen             34            18               193        3475
10 Adelie  Torgersen             42            20               190        4250
# ℹ 334 more rows
# ℹ 2 more variables: sex <fct>, year <int>
…
